{
  "formatVersion": 1,
  "database": {
    "version": 1,
    "identityHash": "ff20fd1aaf35d600437053865b79e65a",
    "entities": [
      {
        "tableName": "Appointment",
        "createSql": "CREATE TABLE IF NOT EXISTS `${TABLE_NAME}` (`appointmentID` INTEGER PRIMARY KEY AUTOINCREMENT NOT NULL, `reminderDate` INTEGER, `fromDate` INTEGER, `toDate` INTEGER, `title` TEXT, `location` TEXT, `note` TEXT, `isEditable` INTEGER NOT NULL, `notificationType` TEXT)",
        "fields": [
          {
            "fieldPath": "appointmentID",
            "columnName": "appointmentID",
            "affinity": "INTEGER",
            "notNull": true
          },
          {
            "fieldPath": "reminderDate",
            "columnName": "reminderDate",
            "affinity": "INTEGER",
            "notNull": false
          },
          {
            "fieldPath": "fromDate",
            "columnName": "fromDate",
            "affinity": "INTEGER",
            "notNull": false
          },
          {
            "fieldPath": "toDate",
            "columnName": "toDate",
            "affinity": "INTEGER",
            "notNull": false
          },
          {
            "fieldPath": "title",
            "columnName": "title",
            "affinity": "TEXT",
            "notNull": false
          },
          {
            "fieldPath": "location",
            "columnName": "location",
            "affinity": "TEXT",
            "notNull": false
          },
          {
            "fieldPath": "note",
            "columnName": "note",
            "affinity": "TEXT",
            "notNull": false
          },
          {
            "fieldPath": "isEditable",
            "columnName": "isEditable",
            "affinity": "INTEGER",
            "notNull": true
          },
          {
            "fieldPath": "notificationType",
            "columnName": "notificationType",
            "affinity": "TEXT",
            "notNull": false
          }
        ],
        "primaryKey": {
          "columnNames": [
            "appointmentID"
          ],
          "autoGenerate": true
        },
        "indices": [],
        "foreignKeys": []
      },
      {
        "tableName": "Deadline",
        "createSql": "CREATE TABLE IF NOT EXISTS `${TABLE_NAME}` (`deadlineID` INTEGER PRIMARY KEY AUTOINCREMENT NOT NULL, `relatedStudyModuleID` INTEGER NOT NULL, `relatedSubmissionTypeID` INTEGER NOT NULL, `submissionDate` INTEGER, `reminderDate` INTEGER, `isFinished` INTEGER NOT NULL, `isDone` INTEGER NOT NULL, `title` TEXT, `notificationType` TEXT, FOREIGN KEY(`relatedStudyModuleID`) REFERENCES `StudyModule`(`studyModuleID`) ON UPDATE NO ACTION ON DELETE CASCADE )",
        "fields": [
          {
            "fieldPath": "deadlineID",
            "columnName": "deadlineID",
            "affinity": "INTEGER",
            "notNull": true
          },
          {
            "fieldPath": "relatedStudyModuleID",
            "columnName": "relatedStudyModuleID",
            "affinity": "INTEGER",
            "notNull": true
          },
          {
            "fieldPath": "relatedSubmissionTypeID",
            "columnName": "relatedSubmissionTypeID",
            "affinity": "INTEGER",
            "notNull": true
          },
          {
            "fieldPath": "submissionDate",
            "columnName": "submissionDate",
            "affinity": "INTEGER",
            "notNull": false
          },
          {
            "fieldPath": "reminderDate",
            "columnName": "reminderDate",
            "affinity": "INTEGER",
            "notNull": false
          },
          {
            "fieldPath": "isFinished",
            "columnName": "isFinished",
            "affinity": "INTEGER",
            "notNull": true
          },
          {
            "fieldPath": "isDone",
            "columnName": "isDone",
            "affinity": "INTEGER",
            "notNull": true
          },
          {
            "fieldPath": "title",
            "columnName": "title",
            "affinity": "TEXT",
            "notNull": false
          },
          {
            "fieldPath": "notificationType",
            "columnName": "notificationType",
            "affinity": "TEXT",
            "notNull": false
          }
        ],
        "primaryKey": {
          "columnNames": [
            "deadlineID"
          ],
          "autoGenerate": true
        },
        "indices": [
          {
            "name": "index_Deadline_relatedStudyModuleID",
            "unique": false,
            "columnNames": [
              "relatedStudyModuleID"
            ],
            "createSql": "CREATE INDEX IF NOT EXISTS `index_Deadline_relatedStudyModuleID` ON `${TABLE_NAME}` (`relatedStudyModuleID`)"
          }
        ],
        "foreignKeys": [
          {
            "table": "StudyModule",
            "onDelete": "CASCADE",
            "onUpdate": "NO ACTION",
            "columns": [
              "relatedStudyModuleID"
            ],
            "referencedColumns": [
              "studyModuleID"
            ]
          }
        ]
      },
      {
        "tableName": "Profile",
        "createSql": "CREATE TABLE IF NOT EXISTS `${TABLE_NAME}` (`profileID` INTEGER PRIMARY KEY AUTOINCREMENT NOT NULL, `name` TEXT, `matriculation_number` TEXT, `university_name` TEXT, `study_level` TEXT, `department_level` TEXT)",
        "fields": [
          {
            "fieldPath": "profileID",
            "columnName": "profileID",
            "affinity": "INTEGER",
            "notNull": true
          },
          {
            "fieldPath": "name",
            "columnName": "name",
            "affinity": "TEXT",
            "notNull": false
          },
          {
            "fieldPath": "matriculationNumber",
            "columnName": "matriculation_number",
            "affinity": "TEXT",
            "notNull": false
          },
          {
            "fieldPath": "universityName",
            "columnName": "university_name",
            "affinity": "TEXT",
            "notNull": false
          },
          {
            "fieldPath": "studyLevel",
            "columnName": "study_level",
            "affinity": "TEXT",
            "notNull": false
          },
          {
            "fieldPath": "departmentName",
            "columnName": "department_level",
            "affinity": "TEXT",
            "notNull": false
          }
        ],
        "primaryKey": {
          "columnNames": [
            "profileID"
          ],
          "autoGenerate": true
        },
        "indices": [],
        "foreignKeys": []
      },
      {
        "tableName": "Settings",
        "createSql": "CREATE TABLE IF NOT EXISTS `${TABLE_NAME}` (`id` INTEGER PRIMARY KEY AUTOINCREMENT NOT NULL, `url` TEXT, `deadlineNotificationEnabled` INTEGER NOT NULL, `appointmentNotificationEnabled` INTEGER NOT NULL)",
        "fields": [
          {
            "fieldPath": "id",
            "columnName": "id",
            "affinity": "INTEGER",
            "notNull": true
          },
          {
            "fieldPath": "url",
            "columnName": "url",
            "affinity": "TEXT",
            "notNull": false
          },
          {
            "fieldPath": "deadlineNotificationEnabled",
            "columnName": "deadlineNotificationEnabled",
            "affinity": "INTEGER",
            "notNull": true
          },
          {
            "fieldPath": "appointmentNotificationEnabled",
            "columnName": "appointmentNotificationEnabled",
            "affinity": "INTEGER",
            "notNull": true
          }
        ],
        "primaryKey": {
          "columnNames": [
            "id"
          ],
          "autoGenerate": true
        },
        "indices": [],
        "foreignKeys": []
      },
      {
        "tableName": "StudyModule",
        "createSql": "CREATE TABLE IF NOT EXISTS `${TABLE_NAME}` (`studyModuleID` INTEGER PRIMARY KEY AUTOINCREMENT NOT NULL, `relatedProfileID` INTEGER NOT NULL, `name` TEXT, `tag` TEXT, `color` TEXT)",
        "fields": [
          {
            "fieldPath": "studyModuleID",
            "columnName": "studyModuleID",
            "affinity": "INTEGER",
            "notNull": true
          },
          {
            "fieldPath": "relatedProfileID",
            "columnName": "relatedProfileID",
            "affinity": "INTEGER",
            "notNull": true
          },
          {
            "fieldPath": "name",
            "columnName": "name",
            "affinity": "TEXT",
            "notNull": false
          },
          {
            "fieldPath": "tag",
            "columnName": "tag",
            "affinity": "TEXT",
            "notNull": false
          },
          {
            "fieldPath": "color",
            "columnName": "color",
            "affinity": "TEXT",
            "notNull": false
          }
        ],
        "primaryKey": {
          "columnNames": [
            "studyModuleID"
          ],
          "autoGenerate": true
        },
        "indices": [],
        "foreignKeys": []
      },
      {
        "tableName": "SubmissionType",
        "createSql": "CREATE TABLE IF NOT EXISTS `${TABLE_NAME}` (`submissionTypeID` INTEGER PRIMARY KEY AUTOINCREMENT NOT NULL, `customText` TEXT, `predefinedType` TEXT)",
        "fields": [
          {
            "fieldPath": "submissionTypeID",
            "columnName": "submissionTypeID",
            "affinity": "INTEGER",
            "notNull": true
          },
          {
            "fieldPath": "customText",
            "columnName": "customText",
            "affinity": "TEXT",
            "notNull": false
          },
          {
            "fieldPath": "predefinedType",
            "columnName": "predefinedType",
            "affinity": "TEXT",
            "notNull": false
          }
        ],
        "primaryKey": {
          "columnNames": [
            "submissionTypeID"
          ],
          "autoGenerate": true
        },
        "indices": [],
        "foreignKeys": []
      },
      {
        "tableName": "ToDo",
        "createSql": "CREATE TABLE IF NOT EXISTS `${TABLE_NAME}` (`toDoID` INTEGER PRIMARY KEY AUTOINCREMENT NOT NULL, `relatedDeadlineID` INTEGER NOT NULL, `description` TEXT, `isDone` INTEGER NOT NULL)",
        "fields": [
          {
            "fieldPath": "toDoID",
            "columnName": "toDoID",
            "affinity": "INTEGER",
            "notNull": true
          },
          {
            "fieldPath": "relatedDeadlineID",
            "columnName": "relatedDeadlineID",
            "affinity": "INTEGER",
            "notNull": true
          },
          {
            "fieldPath": "description",
            "columnName": "description",
            "affinity": "TEXT",
            "notNull": false
          },
          {
            "fieldPath": "isDone",
            "columnName": "isDone",
            "affinity": "INTEGER",
            "notNull": true
          }
        ],
        "primaryKey": {
          "columnNames": [
            "toDoID"
          ],
          "autoGenerate": true
        },
        "indices": [],
        "foreignKeys": []
      }
    ],
    "views": [],
    "setupQueries": [
      "CREATE TABLE IF NOT EXISTS room_master_table (id INTEGER PRIMARY KEY,identity_hash TEXT)",
      "INSERT OR REPLACE INTO room_master_table (id,identity_hash) VALUES(42, 'ff20fd1aaf35d600437053865b79e65a')"
    ]
  }
}